{
    "name": "My_InputAction2",
    "maps": [
        {
            "name": "My_Cat",
            "id": "bfeb197e-3309-48af-b327-1e3140b96b8a",
            "actions": [
                {
                    "name": "Move",
                    "type": "Value",
                    "id": "b384fd9e-e78b-4669-b0a0-945f9f2a6f94",
                    "expectedControlType": "Vector2",
                    "processors": "",
                    "interactions": "",
                    "initialStateCheck": true
                },
                {
                    "name": "Look",
                    "type": "Button",
                    "id": "330c82e7-2476-4632-84b2-b21018db538a",
                    "expectedControlType": "Button",
                    "processors": "",
                    "interactions": "",
                    "initialStateCheck": false
                },
                {
                    "name": "Jump",
                    "type": "Button",
                    "id": "5a0de2b9-4d62-48ca-80e6-600e3718860f",
                    "expectedControlType": "Button",
                    "processors": "",
                    "interactions": "Press",
                    "initialStateCheck": true
                },
                {
                    "name": "Sprint",
                    "type": "PassThrough",
                    "id": "109909e9-66df-4256-98b3-36c00590c382",
                    "expectedControlType": "",
                    "processors": "",
                    "interactions": "",
                    "initialStateCheck": false
                },
                {
                    "name": "Climb",
                    "type": "PassThrough",
                    "id": "a893c98c-6d3a-4f3d-b8ac-95ad0f350021",
                    "expectedControlType": "Button",
                    "processors": "",
                    "interactions": "",
                    "initialStateCheck": false
                },
                {
                    "name": "CharSwiff",
                    "type": "Button",
                    "id": "6a92816c-5543-4da8-b86d-95c96e1936d2",
                    "expectedControlType": "Button",
                    "processors": "",
                    "interactions": "Press",
                    "initialStateCheck": false
                }
            ],
            "bindings": [
                {
                    "name": "2D Vector",
                    "id": "019001bc-ce1a-4a96-856a-4e67a399e6a0",
                    "path": "2DVector",
                    "interactions": "",
                    "processors": "",
                    "groups": "",
                    "action": "Move",
                    "isComposite": true,
                    "isPartOfComposite": false
                },
                {
                    "name": "up",
                    "id": "d3a1a55d-d081-4a7b-ae1d-1d545cd661f4",
                    "path": "<Keyboard>/upArrow",
                    "interactions": "",
                    "processors": "",
                    "groups": "",
                    "action": "Move",
                    "isComposite": false,
                    "isPartOfComposite": true
                },
                {
                    "name": "down",
                    "id": "205bc966-8809-4efa-845d-0377dfce8be1",
                    "path": "<Keyboard>/downArrow",
                    "interactions": "",
                    "processors": "",
                    "groups": "",
                    "action": "Move",
                    "isComposite": false,
                    "isPartOfComposite": true
                },
                {
                    "name": "left",
                    "id": "0047235b-96ec-4567-b8fd-895d0dce5eb7",
                    "path": "<Keyboard>/leftArrow",
                    "interactions": "",
                    "processors": "",
                    "groups": "",
                    "action": "Move",
                    "isComposite": false,
                    "isPartOfComposite": true
                },
                {
                    "name": "right",
                    "id": "0c12df0f-83b5-45d6-ad6e-fa93ea695460",
                    "path": "<Keyboard>/rightArrow",
                    "interactions": "",
                    "processors": "",
                    "groups": "",
                    "action": "Move",
                    "isComposite": false,
                    "isPartOfComposite": true
                },
                {
                    "name": "",
                    "id": "325b713b-26b9-4c1d-b355-30292cc246f9",
                    "path": "",
                    "interactions": "",
                    "processors": "",
                    "groups": "",
                    "action": "Look",
                    "isComposite": false,
                    "isPartOfComposite": false
                },
                {
                    "name": "",
                    "id": "0115f70b-1186-4d8a-ba62-3966e079d6e5",
                    "path": "<Keyboard>/leftShift",
                    "interactions": "",
                    "processors": "",
                    "groups": "",
                    "action": "Sprint",
                    "isComposite": false,
                    "isPartOfComposite": false
                },
                {
                    "name": "",
                    "id": "e18ff802-e5df-45e5-aa21-293ee9672a37",
                    "path": "<Keyboard>/space",
                    "interactions": "",
                    "processors": "",
                    "groups": "",
                    "action": "Climb",
                    "isComposite": false,
                    "isPartOfComposite": false
                },
                {
                    "name": "",
                    "id": "e582baac-63bc-43f8-b4a9-23d6b574fd48",
                    "path": "<Keyboard>/t",
                    "interactions": "",
                    "processors": "",
                    "groups": "",
                    "action": "CharSwiff",
                    "isComposite": false,
                    "isPartOfComposite": false
                },
                {
                    "name": "",
                    "id": "7dd3fb70-19e5-4cf1-81f6-a206ebd1e839",
                    "path": "<Keyboard>/e",
                    "interactions": "",
                    "processors": "",
                    "groups": "",
                    "action": "Jump",
                    "isComposite": false,
                    "isPartOfComposite": false
                }
            ]
        }
    ],
    "controlSchemes": []
}